^D:\УНИВЕР\МАШИННОЕ ОБУЧЕНИЕ\3DIVI\ТЕСТОВОЕ\SOLVER\SOLVER\X64\RESTORE\CUBEGENERATOR.OBJ|D:\УНИВЕР\МАШИННОЕ ОБУЧЕНИЕ\3DIVI\ТЕСТОВОЕ\SOLVER\SOLVER\X64\RESTORE\CUBERESTORATOR.OBJ|D:\УНИВЕР\МАШИННОЕ ОБУЧЕНИЕ\3DIVI\ТЕСТОВОЕ\SOLVER\SOLVER\X64\RESTORE\MATH_UTILS.OBJ|D:\УНИВЕР\МАШИННОЕ ОБУЧЕНИЕ\3DIVI\ТЕСТОВОЕ\SOLVER\SOLVER\X64\RESTORE\PROFILER.OBJ|D:\УНИВЕР\МАШИННОЕ ОБУЧЕНИЕ\3DIVI\ТЕСТОВОЕ\SOLVER\SOLVER\X64\RESTORE\RANDOMIZER.OBJ|D:\УНИВЕР\МАШИННОЕ ОБУЧЕНИЕ\3DIVI\ТЕСТОВОЕ\SOLVER\SOLVER\X64\RESTORE\RULES.OBJ|D:\УНИВЕР\МАШИННОЕ ОБУЧЕНИЕ\3DIVI\ТЕСТОВОЕ\SOLVER\SOLVER\X64\RESTORE\SOLVER.OBJ|D:\УНИВЕР\МАШИННОЕ ОБУЧЕНИЕ\3DIVI\ТЕСТОВОЕ\SOLVER\SOLVER\X64\RESTORE\WULINER.OBJ
D:\Универ\Машинное обучение\3DIVI\Тестовое\SOLVER\X64\RESTORE\SOLVER.ILK
D:\Универ\Машинное обучение\3DIVI\Тестовое\SOLVER\X64\RESTORE\SOLVER.EXE
D:\УНИВЕР\МАШИННОЕ ОБУЧЕНИЕ\3DIVI\ТЕСТОВОЕ\SOLVER\X64\RESTORE\SOLVER.PDB
