23.234 434.188 303.249 485.926 377.669 389.426 97.654 337.688 50.331 164.574 330.346 216.312 404.766 119.812 124.751 68.074
170.532 398.278 88.547 286.734 304.397 238.064 386.382 349.608 163.603 201.936 81.618 90.392 297.468 41.722 379.453 153.266
463.153 352.552 384.296 125.311 400.985 19.799 479.842 247.040 217.015 418.201 138.158 190.960 154.847 85.448 233.704 312.689
34.980 384.582 142.154 267.831 144.334 3.418 37.160 120.168 307.666 432.582 414.840 315.832 417.020 51.418 309.846 168.169
455.860 185.381 250.704 148.800 244.114 336.656 449.270 373.238 391.886 283.344 186.730 246.762 180.140 434.619 385.296 471.200
116.560 193.342 151.038 400.677 37.163 375.939 2.685 168.603 296.837 138.061 331.315 345.397 217.440 320.658 182.962 113.323
214.854 251.146 427.994 261.911 323.881 170.117 110.741 159.351 162.119 475.883 375.259 486.649 271.146 394.854 58.006 384.089
31.490 227.197 118.644 28.994 312.381 83.049 225.227 281.252 105.619 318.951 192.773 120.748 386.510 174.803 299.356 373.006
271.481 46.971 363.773 107.056 421.771 278.563 329.479 218.479 100.229 137.437 192.521 197.521 250.519 369.029 158.227 308.944
96.189 405.917 334.013 354.876 426.689 283.071 188.865 334.112 21.311 154.929 259.135 103.888 351.811 32.083 113.987 83.124
