^D:\УНИВЕР\МАШИННОЕ ОБУЧЕНИЕ\3DIVI\ТЕСТОВОЕ\SOLVER\SOLVER\CUBEGENERATOR.CPP|D:\УНИВЕР\МАШИННОЕ ОБУЧЕНИЕ\3DIVI\ТЕСТОВОЕ\SOLVER\SOLVER\CUBERESTORATOR.CPP|D:\УНИВЕР\МАШИННОЕ ОБУЧЕНИЕ\3DIVI\ТЕСТОВОЕ\SOLVER\SOLVER\MATH_UTILS.CPP|D:\УНИВЕР\МАШИННОЕ ОБУЧЕНИЕ\3DIVI\ТЕСТОВОЕ\SOLVER\SOLVER\PROFILER.CPP|D:\УНИВЕР\МАШИННОЕ ОБУЧЕНИЕ\3DIVI\ТЕСТОВОЕ\SOLVER\SOLVER\RANDOMIZER.CPP|D:\УНИВЕР\МАШИННОЕ ОБУЧЕНИЕ\3DIVI\ТЕСТОВОЕ\SOLVER\SOLVER\RULES.CPP|D:\УНИВЕР\МАШИННОЕ ОБУЧЕНИЕ\3DIVI\ТЕСТОВОЕ\SOLVER\SOLVER\SOLVER.CPP|D:\УНИВЕР\МАШИННОЕ ОБУЧЕНИЕ\3DIVI\ТЕСТОВОЕ\SOLVER\SOLVER\WULINER.CPP
D:\Универ\Машинное обучение\3DIVI\Тестовое\SOLVER\SOLVER\X64\RELEASE\VC140.PDB
D:\Универ\Машинное обучение\3DIVI\Тестовое\SOLVER\SOLVER\X64\RELEASE\WULINER.OBJ
D:\Универ\Машинное обучение\3DIVI\Тестовое\SOLVER\SOLVER\X64\RELEASE\SOLVER.OBJ
D:\Универ\Машинное обучение\3DIVI\Тестовое\SOLVER\SOLVER\X64\RELEASE\RULES.OBJ
D:\Универ\Машинное обучение\3DIVI\Тестовое\SOLVER\SOLVER\X64\RELEASE\MATH_UTILS.OBJ
D:\Универ\Машинное обучение\3DIVI\Тестовое\SOLVER\SOLVER\X64\RELEASE\RANDOMIZER.OBJ
D:\Универ\Машинное обучение\3DIVI\Тестовое\SOLVER\SOLVER\X64\RELEASE\PROFILER.OBJ
D:\Универ\Машинное обучение\3DIVI\Тестовое\SOLVER\SOLVER\X64\RELEASE\CUBEGENERATOR.OBJ
D:\Универ\Машинное обучение\3DIVI\Тестовое\SOLVER\SOLVER\X64\RELEASE\CUBERESTORATOR.OBJ
^D:\УНИВЕР\МАШИННОЕ ОБУЧЕНИЕ\3DIVI\ТЕСТОВОЕ\SOLVER\SOLVER\PROFILER.CPP
D:\УНИВЕР\МАШИННОЕ ОБУЧЕНИЕ\3DIVI\ТЕСТОВОЕ\SOLVER\SOLVER\X64\RELEASE\VC140.PDB
^D:\УНИВЕР\МАШИННОЕ ОБУЧЕНИЕ\3DIVI\ТЕСТОВОЕ\SOLVER\SOLVER\RANDOMIZER.CPP
D:\УНИВЕР\МАШИННОЕ ОБУЧЕНИЕ\3DIVI\ТЕСТОВОЕ\SOLVER\SOLVER\X64\RELEASE\VC140.PDB
^D:\УНИВЕР\МАШИННОЕ ОБУЧЕНИЕ\3DIVI\ТЕСТОВОЕ\SOLVER\SOLVER\RULES.CPP
D:\УНИВЕР\МАШИННОЕ ОБУЧЕНИЕ\3DIVI\ТЕСТОВОЕ\SOLVER\SOLVER\X64\RELEASE\VC140.PDB
^D:\УНИВЕР\МАШИННОЕ ОБУЧЕНИЕ\3DIVI\ТЕСТОВОЕ\SOLVER\SOLVER\CUBEGENERATOR.CPP|D:\УНИВЕР\МАШИННОЕ ОБУЧЕНИЕ\3DIVI\ТЕСТОВОЕ\SOLVER\SOLVER\CUBERESTORATOR.CPP|D:\УНИВЕР\МАШИННОЕ ОБУЧЕНИЕ\3DIVI\ТЕСТОВОЕ\SOLVER\SOLVER\MATH_UTILS.CPP|D:\УНИВЕР\МАШИННОЕ ОБУЧЕНИЕ\3DIVI\ТЕСТОВОЕ\SOLVER\SOLVER\WULINER.CPP
D:\Универ\Машинное обучение\3DIVI\Тестовое\SOLVER\SOLVER\X64\RELEASE\VC140.PDB
D:\Универ\Машинное обучение\3DIVI\Тестовое\SOLVER\SOLVER\X64\RELEASE\MATH_UTILS.OBJ
D:\Универ\Машинное обучение\3DIVI\Тестовое\SOLVER\SOLVER\X64\RELEASE\WULINER.OBJ
D:\Универ\Машинное обучение\3DIVI\Тестовое\SOLVER\SOLVER\X64\RELEASE\CUBERESTORATOR.OBJ
D:\Универ\Машинное обучение\3DIVI\Тестовое\SOLVER\SOLVER\X64\RELEASE\CUBEGENERATOR.OBJ
^D:\УНИВЕР\МАШИННОЕ ОБУЧЕНИЕ\3DIVI\ТЕСТОВОЕ\SOLVER\SOLVER\MATH_UTILS.CPP
D:\УНИВЕР\МАШИННОЕ ОБУЧЕНИЕ\3DIVI\ТЕСТОВОЕ\SOLVER\SOLVER\X64\RELEASE\VC140.PDB
^D:\УНИВЕР\МАШИННОЕ ОБУЧЕНИЕ\3DIVI\ТЕСТОВОЕ\SOLVER\SOLVER\CUBERESTORATOR.CPP|D:\УНИВЕР\МАШИННОЕ ОБУЧЕНИЕ\3DIVI\ТЕСТОВОЕ\SOLVER\SOLVER\SOLVER.CPP|D:\УНИВЕР\МАШИННОЕ ОБУЧЕНИЕ\3DIVI\ТЕСТОВОЕ\SOLVER\SOLVER\WULINER.CPP
D:\Универ\Машинное обучение\3DIVI\Тестовое\SOLVER\SOLVER\X64\RELEASE\VC140.PDB
D:\Универ\Машинное обучение\3DIVI\Тестовое\SOLVER\SOLVER\X64\RELEASE\SOLVER.OBJ
D:\Универ\Машинное обучение\3DIVI\Тестовое\SOLVER\SOLVER\X64\RELEASE\WULINER.OBJ
D:\Универ\Машинное обучение\3DIVI\Тестовое\SOLVER\SOLVER\X64\RELEASE\CUBERESTORATOR.OBJ
^D:\УНИВЕР\МАШИННОЕ ОБУЧЕНИЕ\3DIVI\ТЕСТОВОЕ\SOLVER\SOLVER\SOLVER.CPP
D:\УНИВЕР\МАШИННОЕ ОБУЧЕНИЕ\3DIVI\ТЕСТОВОЕ\SOLVER\SOLVER\X64\RELEASE\VC140.PDB
^D:\УНИВЕР\МАШИННОЕ ОБУЧЕНИЕ\3DIVI\ТЕСТОВОЕ\SOLVER\SOLVER\CUBEGENERATOR.CPP|D:\УНИВЕР\МАШИННОЕ ОБУЧЕНИЕ\3DIVI\ТЕСТОВОЕ\SOLVER\SOLVER\CUBERESTORATOR.CPP|D:\УНИВЕР\МАШИННОЕ ОБУЧЕНИЕ\3DIVI\ТЕСТОВОЕ\SOLVER\SOLVER\WULINER.CPP
D:\Универ\Машинное обучение\3DIVI\Тестовое\SOLVER\SOLVER\X64\RELEASE\VC140.PDB
D:\Универ\Машинное обучение\3DIVI\Тестовое\SOLVER\SOLVER\X64\RELEASE\WULINER.OBJ
D:\Универ\Машинное обучение\3DIVI\Тестовое\SOLVER\SOLVER\X64\RELEASE\CUBERESTORATOR.OBJ
D:\Универ\Машинное обучение\3DIVI\Тестовое\SOLVER\SOLVER\X64\RELEASE\CUBEGENERATOR.OBJ
^D:\УНИВЕР\МАШИННОЕ ОБУЧЕНИЕ\3DIVI\ТЕСТОВОЕ\SOLVER\SOLVER\CUBEGENERATOR.CPP
D:\УНИВЕР\МАШИННОЕ ОБУЧЕНИЕ\3DIVI\ТЕСТОВОЕ\SOLVER\SOLVER\X64\RELEASE\VC140.PDB
^D:\УНИВЕР\МАШИННОЕ ОБУЧЕНИЕ\3DIVI\ТЕСТОВОЕ\SOLVER\SOLVER\CUBERESTORATOR.CPP
D:\УНИВЕР\МАШИННОЕ ОБУЧЕНИЕ\3DIVI\ТЕСТОВОЕ\SOLVER\SOLVER\X64\RELEASE\VC140.PDB
^D:\УНИВЕР\МАШИННОЕ ОБУЧЕНИЕ\3DIVI\ТЕСТОВОЕ\SOLVER\SOLVER\WULINER.CPP
D:\УНИВЕР\МАШИННОЕ ОБУЧЕНИЕ\3DIVI\ТЕСТОВОЕ\SOLVER\SOLVER\X64\RELEASE\VC140.PDB
