﻿  solver.cpp
  Solver.vcxproj -> D:\Универ\Машинное обучение\3DiVi\Тестовое\Solver\Restore\Solver.exe
  Solver.vcxproj -> D:\Универ\Машинное обучение\3DiVi\Тестовое\Solver\Restore\Solver.pdb (Full PDB)
