﻿  math_utils.cpp
d:\универ\машинное обучение\3divi\тестовое\solver\solver\math_utils.cpp(8): warning C4267: 'initializing': conversion from 'size_t' to 'int', possible loss of data
d:\универ\машинное обучение\3divi\тестовое\solver\solver\math_utils.cpp(9): warning C4267: 'initializing': conversion from 'size_t' to 'int', possible loss of data
d:\универ\машинное обучение\3divi\тестовое\solver\solver\math_utils.cpp(10): warning C4267: 'initializing': conversion from 'size_t' to 'int', possible loss of data
  Solver.vcxproj -> D:\Универ\Машинное обучение\3DiVi\Тестовое\Solver\x64\Restore\Solver.exe
  Solver.vcxproj -> D:\Универ\Машинное обучение\3DiVi\Тестовое\Solver\x64\Restore\Solver.pdb (Full PDB)
