^D:\УНИВЕР\МАШИННОЕ ОБУЧЕНИЕ\3DIVI\ТЕСТОВОЕ\SOLVER\SOLVER\CUBE_GENERATOR.CPP|D:\УНИВЕР\МАШИННОЕ ОБУЧЕНИЕ\3DIVI\ТЕСТОВОЕ\SOLVER\SOLVER\RULES.CPP|D:\УНИВЕР\МАШИННОЕ ОБУЧЕНИЕ\3DIVI\ТЕСТОВОЕ\SOLVER\SOLVER\SOLVER.CPP
D:\Универ\Машинное обучение\3DIVI\Тестовое\SOLVER\SOLVER\GENERATE\VC140.PDB
D:\Универ\Машинное обучение\3DIVI\Тестовое\SOLVER\SOLVER\GENERATE\RULES.OBJ
^D:\УНИВЕР\МАШИННОЕ ОБУЧЕНИЕ\3DIVI\ТЕСТОВОЕ\SOLVER\SOLVER\CUBE_GENERATOR.CPP|D:\УНИВЕР\МАШИННОЕ ОБУЧЕНИЕ\3DIVI\ТЕСТОВОЕ\SOLVER\SOLVER\MATH_UTILS.CPP|D:\УНИВЕР\МАШИННОЕ ОБУЧЕНИЕ\3DIVI\ТЕСТОВОЕ\SOLVER\SOLVER\RULES.CPP|D:\УНИВЕР\МАШИННОЕ ОБУЧЕНИЕ\3DIVI\ТЕСТОВОЕ\SOLVER\SOLVER\SOLVER.CPP|D:\УНИВЕР\МАШИННОЕ ОБУЧЕНИЕ\3DIVI\ТЕСТОВОЕ\SOLVER\SOLVER\WULINER.CPP
D:\Универ\Машинное обучение\3DIVI\Тестовое\SOLVER\SOLVER\GENERATE\VC140.PDB
D:\Универ\Машинное обучение\3DIVI\Тестовое\SOLVER\SOLVER\GENERATE\SOLVER.OBJ
D:\Универ\Машинное обучение\3DIVI\Тестовое\SOLVER\SOLVER\GENERATE\MATH_UTILS.OBJ
D:\Универ\Машинное обучение\3DIVI\Тестовое\SOLVER\SOLVER\GENERATE\CUBE_GENERATOR.OBJ
D:\Универ\Машинное обучение\3DIVI\Тестовое\SOLVER\SOLVER\GENERATE\WULINER.OBJ
D:\Универ\Машинное обучение\3DIVI\Тестовое\SOLVER\SOLVER\GENERATE\RULES.OBJ
^D:\УНИВЕР\МАШИННОЕ ОБУЧЕНИЕ\3DIVI\ТЕСТОВОЕ\SOLVER\SOLVER\CUBE_GENERATOR.CPP|D:\УНИВЕР\МАШИННОЕ ОБУЧЕНИЕ\3DIVI\ТЕСТОВОЕ\SOLVER\SOLVER\SOLVER.CPP
D:\Универ\Машинное обучение\3DIVI\Тестовое\SOLVER\SOLVER\GENERATE\VC140.PDB
D:\Универ\Машинное обучение\3DIVI\Тестовое\SOLVER\SOLVER\GENERATE\SOLVER.OBJ
D:\Универ\Машинное обучение\3DIVI\Тестовое\SOLVER\SOLVER\GENERATE\CUBE_GENERATOR.OBJ
^D:\УНИВЕР\МАШИННОЕ ОБУЧЕНИЕ\3DIVI\ТЕСТОВОЕ\SOLVER\SOLVER\CUBE_GENERATOR.CPP|D:\УНИВЕР\МАШИННОЕ ОБУЧЕНИЕ\3DIVI\ТЕСТОВОЕ\SOLVER\SOLVER\MATH_UTILS.CPP|D:\УНИВЕР\МАШИННОЕ ОБУЧЕНИЕ\3DIVI\ТЕСТОВОЕ\SOLVER\SOLVER\RANDOMIZER.CPP|D:\УНИВЕР\МАШИННОЕ ОБУЧЕНИЕ\3DIVI\ТЕСТОВОЕ\SOLVER\SOLVER\WULINER.CPP
D:\Универ\Машинное обучение\3DIVI\Тестовое\SOLVER\SOLVER\GENERATE\VC140.PDB
D:\Универ\Машинное обучение\3DIVI\Тестовое\SOLVER\SOLVER\GENERATE\WULINER.OBJ
D:\Универ\Машинное обучение\3DIVI\Тестовое\SOLVER\SOLVER\GENERATE\MATH_UTILS.OBJ
D:\Универ\Машинное обучение\3DIVI\Тестовое\SOLVER\SOLVER\GENERATE\CUBE_GENERATOR.OBJ
^D:\УНИВЕР\МАШИННОЕ ОБУЧЕНИЕ\3DIVI\ТЕСТОВОЕ\SOLVER\SOLVER\MATH_UTILS.CPP
D:\УНИВЕР\МАШИННОЕ ОБУЧЕНИЕ\3DIVI\ТЕСТОВОЕ\SOLVER\SOLVER\GENERATE\MATH_UTILS.OBJ
^D:\УНИВЕР\МАШИННОЕ ОБУЧЕНИЕ\3DIVI\ТЕСТОВОЕ\SOLVER\SOLVER\CUBE_GENERATOR.CPP|D:\УНИВЕР\МАШИННОЕ ОБУЧЕНИЕ\3DIVI\ТЕСТОВОЕ\SOLVER\SOLVER\RANDOMIZER.CPP
D:\Универ\Машинное обучение\3DIVI\Тестовое\SOLVER\SOLVER\GENERATE\VC140.PDB
D:\Универ\Машинное обучение\3DIVI\Тестовое\SOLVER\SOLVER\GENERATE\RANDOMIZER.OBJ
D:\Универ\Машинное обучение\3DIVI\Тестовое\SOLVER\SOLVER\GENERATE\CUBE_GENERATOR.OBJ
^D:\УНИВЕР\МАШИННОЕ ОБУЧЕНИЕ\3DIVI\ТЕСТОВОЕ\SOLVER\SOLVER\RANDOMIZER.CPP
D:\УНИВЕР\МАШИННОЕ ОБУЧЕНИЕ\3DIVI\ТЕСТОВОЕ\SOLVER\SOLVER\GENERATE\VC140.PDB
^D:\УНИВЕР\МАШИННОЕ ОБУЧЕНИЕ\3DIVI\ТЕСТОВОЕ\SOLVER\SOLVER\CUBE_GENERATOR.CPP|D:\УНИВЕР\МАШИННОЕ ОБУЧЕНИЕ\3DIVI\ТЕСТОВОЕ\SOLVER\SOLVER\RULES.CPP|D:\УНИВЕР\МАШИННОЕ ОБУЧЕНИЕ\3DIVI\ТЕСТОВОЕ\SOLVER\SOLVER\SOLVER.CPP|D:\УНИВЕР\МАШИННОЕ ОБУЧЕНИЕ\3DIVI\ТЕСТОВОЕ\SOLVER\SOLVER\WULINER.CPP
D:\Универ\Машинное обучение\3DIVI\Тестовое\SOLVER\SOLVER\GENERATE\VC140.PDB
D:\Универ\Машинное обучение\3DIVI\Тестовое\SOLVER\SOLVER\GENERATE\SOLVER.OBJ
D:\Универ\Машинное обучение\3DIVI\Тестовое\SOLVER\SOLVER\GENERATE\CUBE_GENERATOR.OBJ
D:\Универ\Машинное обучение\3DIVI\Тестовое\SOLVER\SOLVER\GENERATE\WULINER.OBJ
D:\Универ\Машинное обучение\3DIVI\Тестовое\SOLVER\SOLVER\GENERATE\RULES.OBJ
^D:\УНИВЕР\МАШИННОЕ ОБУЧЕНИЕ\3DIVI\ТЕСТОВОЕ\SOLVER\SOLVER\RULES.CPP
D:\УНИВЕР\МАШИННОЕ ОБУЧЕНИЕ\3DIVI\ТЕСТОВОЕ\SOLVER\SOLVER\GENERATE\VC140.PDB
^D:\УНИВЕР\МАШИННОЕ ОБУЧЕНИЕ\3DIVI\ТЕСТОВОЕ\SOLVER\SOLVER\WULINER.CPP
D:\УНИВЕР\МАШИННОЕ ОБУЧЕНИЕ\3DIVI\ТЕСТОВОЕ\SOLVER\SOLVER\GENERATE\VC140.PDB
^D:\УНИВЕР\МАШИННОЕ ОБУЧЕНИЕ\3DIVI\ТЕСТОВОЕ\SOLVER\SOLVER\CUBE_GENERATOR.CPP
D:\УНИВЕР\МАШИННОЕ ОБУЧЕНИЕ\3DIVI\ТЕСТОВОЕ\SOLVER\SOLVER\GENERATE\VC140.PDB
^D:\УНИВЕР\МАШИННОЕ ОБУЧЕНИЕ\3DIVI\ТЕСТОВОЕ\SOLVER\SOLVER\SOLVER.CPP
D:\УНИВЕР\МАШИННОЕ ОБУЧЕНИЕ\3DIVI\ТЕСТОВОЕ\SOLVER\SOLVER\GENERATE\VC140.PDB
