^D:\УНИВЕР\МАШИННОЕ ОБУЧЕНИЕ\3DIVI\ТЕСТОВОЕ\SOLVER\SOLVER\GENERATE\SOLVER.OBJ
/OUT:"D:\УНИВЕР\МАШИННОЕ ОБУЧЕНИЕ\3DIVI\ТЕСТОВОЕ\SOLVER\GENERATE\SOLVER.EXE" /INCREMENTAL:NO /NOLOGO KERNEL32.LIB USER32.LIB GDI32.LIB WINSPOOL.LIB COMDLG32.LIB ADVAPI32.LIB SHELL32.LIB OLE32.LIB OLEAUT32.LIB UUID.LIB ODBC32.LIB ODBCCP32.LIB /MANIFEST /MANIFESTUAC:"level='asInvoker' uiAccess='false'" /manifest:embed /DEBUG /PDB:"D:\УНИВЕР\МАШИННОЕ ОБУЧЕНИЕ\3DIVI\ТЕСТОВОЕ\SOLVER\GENERATE\SOLVER.PDB" /SUBSYSTEM:CONSOLE /OPT:REF /OPT:ICF /LTCG:incremental /TLBID:1 /DYNAMICBASE /NXCOMPAT /IMPLIB:"D:\УНИВЕР\МАШИННОЕ ОБУЧЕНИЕ\3DIVI\ТЕСТОВОЕ\SOLVER\GENERATE\SOLVER.LIB" /MACHINE:X86 /SAFESEH GENERATE\SOLVER.OBJ
^D:\УНИВЕР\МАШИННОЕ ОБУЧЕНИЕ\3DIVI\ТЕСТОВОЕ\SOLVER\SOLVER\GENERATE\CUBE_GENERATOR.OBJ|D:\УНИВЕР\МАШИННОЕ ОБУЧЕНИЕ\3DIVI\ТЕСТОВОЕ\SOLVER\SOLVER\GENERATE\MATH_UTILS.OBJ|D:\УНИВЕР\МАШИННОЕ ОБУЧЕНИЕ\3DIVI\ТЕСТОВОЕ\SOLVER\SOLVER\GENERATE\RANDOMIZER.OBJ|D:\УНИВЕР\МАШИННОЕ ОБУЧЕНИЕ\3DIVI\ТЕСТОВОЕ\SOLVER\SOLVER\GENERATE\RULES.OBJ|D:\УНИВЕР\МАШИННОЕ ОБУЧЕНИЕ\3DIVI\ТЕСТОВОЕ\SOLVER\SOLVER\GENERATE\SOLVER.OBJ|D:\УНИВЕР\МАШИННОЕ ОБУЧЕНИЕ\3DIVI\ТЕСТОВОЕ\SOLVER\SOLVER\GENERATE\WULINER.OBJ
/OUT:"D:\УНИВЕР\МАШИННОЕ ОБУЧЕНИЕ\3DIVI\ТЕСТОВОЕ\SOLVER\GENERATE\SOLVER.EXE" /INCREMENTAL:NO /NOLOGO KERNEL32.LIB USER32.LIB GDI32.LIB WINSPOOL.LIB COMDLG32.LIB ADVAPI32.LIB SHELL32.LIB OLE32.LIB OLEAUT32.LIB UUID.LIB ODBC32.LIB ODBCCP32.LIB /MANIFEST /MANIFESTUAC:"level='asInvoker' uiAccess='false'" /manifest:embed /DEBUG /PDB:"D:\УНИВЕР\МАШИННОЕ ОБУЧЕНИЕ\3DIVI\ТЕСТОВОЕ\SOLVER\GENERATE\SOLVER.PDB" /SUBSYSTEM:CONSOLE /OPT:REF /OPT:ICF /LTCG:incremental /TLBID:1 /DYNAMICBASE /NXCOMPAT /IMPLIB:"D:\УНИВЕР\МАШИННОЕ ОБУЧЕНИЕ\3DIVI\ТЕСТОВОЕ\SOLVER\GENERATE\SOLVER.LIB" /MACHINE:X86 /SAFESEH GENERATE\CUBE_GENERATOR.OBJGENERATE\RANDOMIZER.OBJGENERATE\MATH_UTILS.OBJGENERATE\RULES.OBJGENERATE\SOLVER.OBJGENERATE\WULINER.OBJ
