^D:\УНИВЕР\МАШИННОЕ ОБУЧЕНИЕ\3DIVI\ТЕСТОВОЕ\SOLVER\SOLVER\X64\DEBUG\CUBEGENERATOR.OBJ|D:\УНИВЕР\МАШИННОЕ ОБУЧЕНИЕ\3DIVI\ТЕСТОВОЕ\SOLVER\SOLVER\X64\DEBUG\CUBERESTORATOR.OBJ|D:\УНИВЕР\МАШИННОЕ ОБУЧЕНИЕ\3DIVI\ТЕСТОВОЕ\SOLVER\SOLVER\X64\DEBUG\MATH_UTILS.OBJ|D:\УНИВЕР\МАШИННОЕ ОБУЧЕНИЕ\3DIVI\ТЕСТОВОЕ\SOLVER\SOLVER\X64\DEBUG\PROFILER.OBJ|D:\УНИВЕР\МАШИННОЕ ОБУЧЕНИЕ\3DIVI\ТЕСТОВОЕ\SOLVER\SOLVER\X64\DEBUG\RANDOMIZER.OBJ|D:\УНИВЕР\МАШИННОЕ ОБУЧЕНИЕ\3DIVI\ТЕСТОВОЕ\SOLVER\SOLVER\X64\DEBUG\RULES.OBJ|D:\УНИВЕР\МАШИННОЕ ОБУЧЕНИЕ\3DIVI\ТЕСТОВОЕ\SOLVER\SOLVER\X64\DEBUG\SOLVER.OBJ|D:\УНИВЕР\МАШИННОЕ ОБУЧЕНИЕ\3DIVI\ТЕСТОВОЕ\SOLVER\SOLVER\X64\DEBUG\WULINER.OBJ
D:\Универ\Машинное обучение\3DIVI\Тестовое\SOLVER\X64\DEBUG\SOLVER.ILK
D:\Универ\Машинное обучение\3DIVI\Тестовое\SOLVER\X64\DEBUG\SOLVER.EXE
D:\УНИВЕР\МАШИННОЕ ОБУЧЕНИЕ\3DIVI\ТЕСТОВОЕ\SOLVER\X64\DEBUG\SOLVER.PDB
